{
  "users": [
    {
      "id": 1,
      "name": "Akofa",
      "pw": "manuel"
    },
    {
      "id": 2,
      "name": "Simone",
      "pw": "tamara"
    },
    {
      "id": 3,
      "name": "Festus",
      "pw": "manuel"
    }
  ],
  "saison": [
    {
      "id": 62,
      "name": "Spring/Sommer 2016"
    },
    {
      "id": 63,
      "name": "Sommer 2016"
    }
  ],
  "collection": [
    {
      "id": 10,
      "name": "Hosen Mac Damen"
    },
    {
      "id": 30,
      "name": "Hosen Mac Herren"
    }
  ],
  "fertigunsort": [
    {
      "id": 1,
      "name": "YI"
    },
    {
      "id": 2,
      "name": "EL"
    },
    {
      "id": 2,
      "name": "FS"
    },
    {
      "id": 2,
      "name": "ME"
    },
    {
      "id": 2,
      "name": "MD"
    }
  ],
  "testorders": [
    {
      "id": 1,
      "name": "78451202",
      "saison": 62,
      "collection": 10,
      "feto": 1
    },
    {
      "id": 2,
      "name": "1548792",
      "saison": 62,
      "collection": 10,
      "feto": 1
    },
    {
      "id": 2,
      "name": "1548792",
      "saison": 62,
      "collection": 10,
      "feto": 1
    },
    {
      "id": 3,
      "name": "1548792",
      "saison": 62,
      "collection": 10,
      "feto": 1
    },
    {
      "id": 4,
      "name": "1548792",
      "saison": 62,
      "collection": 10,
      "feto": 1
    }
  ],
  "FANR": [
    {
      "fanr": "K203YI06"
    },
    {
      "fanr": "K912EL06"
    },
    {
      "fanr": "L107B105"
    },
    {
      "fanr": "L107FS05"
    },
    {
      "fanr": "L112CC05"
    },
    {
      "fanr": "L204YI06"
    },
    {
      "fanr": "L216FS05"
    },
    {
      "fanr": "L302MD06"
    },
    {
      "fanr": "L312YI05"
    },
    {
      "fanr": "L313HE05"
    },
    {
      "fanr": "L316MD05"
    },
    {
      "fanr": "L416EL06"
    },
    {
      "fanr": "L507HE05"
    },
    {
      "fanr": "L511C305"
    },
    {
      "fanr": "L512YI05"
    },
    {
      "fanr": "L513YI05"
    },
    {
      "fanr": "L514ME05"
    },
    {
      "fanr": "L514YI05"
    },
    {
      "fanr": "L518ME05"
    },
    {
      "fanr": "L518YI05"
    },
    {
      "fanr": "L521VI05"
    }
  ],
  "formularKopfDaten1": [
    {
      "fanr": "K203YI06",
      "faps": "00001",
      "feto": "YI",
      "arnr": "0123",
      "form": "5040",
      "variante": "00",
      "formname": "FOBZ",
      "psmg": 300,
      "fetow": "",
      "stick": "",
      "dekade": "K203",
      "sais": "ok",
      "koll": "ok",
      "zuschnitt": "20160412",
      "produktion": "20160412",
      "anlieferung": "20160412"
    },
    {
      "fanr": "L521VI05",
      "faps": "00001",
      "feto": "YI",
      "artikel": "0123",
      "form": "5040",
      "variante": "00",
      "Formname": "FOBZ",
      "psmg": 300,
      "fetow": "",
      "stick": "",
      "dekade": "K203",
      "sais": "ok",
      "koll": "ok",
      "zuschnitt": "20160412",
      "produktion": "20160412",
      "anlieferung": "20160412"
    },
    {
      "fanr": "L521VI05",
      "faps": "00001",
      "feto": "EL",
      "arnr": "0123",
      "form": "5040",
      "vacp": "00",
      "formname": "FOBZ",
      "psmg": 300,
      "fetow": "",
      "stick": "",
      "dekade": "K203",
      "sais": "ok",
      "koll": "ok",
      "zuschnitt": "20160412",
      "produktion": "20160412",
      "anlieferung": "20160412"
    }
  ],
  "formularDaten": [
    {
      "finr": "001",
      "fanr": "L521VI05",
      "faps": "00001",
      "feto": "EL",
      "klkz": "Kontrollkennzeichen J/N",
      "arnr": "0123",
      "form": "5040",
      "vacp": "00",
      "fetow": "FOBZ",
      "psmg": 300,
      "dekade": "K203",
      "sais": "ok",
      "koll": "ok",
      "spnr": "00001",
      "ftol": "Fehlertolenz",
      "spgs": 51,
      "lang": 36,
      "gros": 38,
      "bundweite IST": 0,
      "bundweite SOLL": 0,
      "spalt IST": 0,
      "spalt SOLL": 0,
      "knieweite IST ": 0,
      "knieweite SOLL": 0,
      "text": " text",
      "sample": "J",
      "freim ": "J",
      "frei": "J",
      "user": "Djomatin",
      "updated": "now"
    }
  ],
  "formularKopfDaten": [
    {
      "FANR": "00102230",
      "FAPS": "00001",
      "FETO": "ME",
      "SAIS": "BO",
      "KOLL": "DD",
      "FORM": "2323",
      "VACP": "90",
      "ARNR": "0186",
      "FBNR": "D999",
      "PSMG": 150,
      "FOBZ": "Cropped",
      "VABZ": "Flared Denim",
      "ZUSCHNITT": 20160412,
      "PRODUKTION": 0,
      "ANLIEFERUNG": 20160428,
      "VGL_DATUM": 20160420
    },
    {
      "FANR": "00102263",
      "FAPS": "00001",
      "FETO": "FS",
      "SAIS": "BO",
      "KOLL": "DD",
      "FORM": "2311",
      "VACP": "90",
      "ARNR": "0323",
      "FBNR": "D493",
      "PSMG": "149",
      "FOBZ": "Slim Boyfit",
      "VABZ": "",
      "ZUSCHNITT": 20160503,
      "PRODUKTION": 0,
      "ANLIEFERUNG": 20160502,
      "VGL_DATUM": 20160420
    },
    {
      "FANR": "00102262",
      "FAPS": "00001",
      "FETO": "FS",
      "SAIS": "BO",
      "KOLL": "DD",
      "FORM": "2313",
      "VACP": "90",
      "ARNR": "0323",
      "FBNR": "D647",
      "PSMG": 151,
      "FOBZ": "Sexy",
      "VABZ": "Pocket",
      "ZUSCHNITT": 20160503,
      "PRODUKTION": 0,
      "ANLIEFERUNG": 20160502,
      "VGL_DATUM": 20160420
    },
    {
      "FANR": "00102231",
      "FAPS": "00001",
      "FETO": "ME",
      "SAIS": "BO",
      "KOLL": "DD",
      "FORM": "2323",
      "VACP": "90",
      "ARNR": "0186",
      "FBNR": "D801",
      "PSMG": 153,
      "FOBZ": "Cropped",
      "VABZ": "Flared Denim",
      "ZUSCHNITT": 20160412,
      "PRODUKTION": 0,
      "ANLIEFERUNG": 20160428,
      "VGL_DATUM": 20160420
    },
    {
      "FANR": "00102232",
      "FAPS": "00001",
      "FETO": "YI",
      "SAIS": "BO",
      "KOLL": "DD",
      "FORM": "2312",
      "VACP": "92",
      "ARNR": "0323",
      "FBNR": "D838",
      "PSMG": 226,
      "FOBZ": "Sexy",
      "VABZ": "Crystal Tape",
      "ZUSCHNITT": 0,
      "PRODUKTION": 0,
      "ANLIEFERUNG": 20160517,
      "VGL_DATUM": 20160420
    },
    {
      "FANR": "00101542",
      "FAPS": "00001",
      "FETO": "MD",
      "SAIS": "BO",
      "KOLL": "DD",
      "FORM": "5212",
      "VACP": "00",
      "ARNR": "0127",
      "FBNR": "079",
      "PSMG": 230,
      "FOBZ": "Ankle",
      "VABZ": "",
      "ZUSCHNITT": 20160413,
      "PRODUKTION": 0,
      "ANLIEFERUNG": 20160422,
      "VGL_DATUM": 20160420
    },
    {
      "FANR": "00101540",
      "FAPS": "00001",
      "FETO": "FS",
      "SAIS": "BO",
      "KOLL": "DD",
      "FORM": "2301",
      "VACP": "90",
      "ARNR": "0186",
      "FBNR": "D554",
      "PSMG": 292,
      "FOBZ": "Skinny Ankle",
      "VABZ": "",
      "ZUSCHNITT": 20160419,
      "PRODUKTION": 0,
      "ANLIEFERUNG": 20160422,
      "VGL_DATUM": 20160420
    },
    {
      "FANR": "00101539",
      "FAPS": "00001",
      "FETO": "ME",
      "SAIS": "BO",
      "KOLL": "DD",
      "FORM": "2301",
      "VACP": "90",
      "ARNR": "0186",
      "FBNR": "D904",
      "PSMG": 296,
      "FOBZ": "Skinny Ankle",
      "VABZ": "",
      "ZUSCHNITT": 20160408,
      "PRODUKTION": 0,
      "ANLIEFERUNG": 20160420,
      "VGL_DATUM": 20160420
    },
    {
      "FANR": "00101541",
      "FAPS": "00001",
      "FETO": "MD",
      "SAIS": "BO",
      "KOLL": "DD",
      "FORM": "5212",
      "VACP": "00",
      "ARNR": "0127",
      "FBNR": "064B",
      "PSMG": 300,
      "FOBZ": "Ankle",
      "VABZ": "",
      "ZUSCHNITT": 20160415,
      "PRODUKTION": 0,
      "ANLIEFERUNG": 20160422,
      "VGL_DATUM": 20160420
    },
    {
      "FANR": "00101543",
      "FAPS": "00001",
      "FETO": "MD",
      "SAIS": "BO",
      "KOLL": "DD",
      "FORM": "5212",
      "VACP": "00",
      "ARNR": "0127",
      "FBNR": "470",
      "PSMG": 300,
      "FOBZ": "Ankle",
      "VABZ": "",
      "ZUSCHNITT": 20160413,
      "PRODUKTION": 0,
      "ANLIEFERUNG": 20160422,
      "VGL_DATUM": 20160420
    },
    {
      "FANR": "00101544",
      "FAPS": "00001",
      "FETO": "MD",
      "SAIS": "BO",
      "KOLL": "DD",
      "FORM": "5222",
      "VACP": "00",
      "ARNR": "0127",
      "FBNR": "090",
      "PSMG": 300,
      "FOBZ": "Cigarette",
      "VABZ": "Zip",
      "ZUSCHNITT": 20160413,
      "PRODUKTION": 0,
      "ANLIEFERUNG": 20160426,
      "VGL_DATUM": 20160420
    },
    {
      "FANR": "00101538",
      "FAPS": "00001",
      "FETO": "ME",
      "SAIS": "BO",
      "KOLL": "DD",
      "FORM": "2301",
      "VACP": "90",
      "ARNR": "0186",
      "FBNR": "D999",
      "PSMG": 18,
      "FOBZ": "Skinny Ankle",
      "VABZ": "",
      "ZUSCHNITT": 20160408,
      "PRODUKTION": 0,
      "ANLIEFERUNG": 20160420,
      "VGL_DATUM": 20160420
    },
    {
      "FANR": "00102494",
      "FAPS": "00001",
      "FETO": "MH",
      "SAIS": "BO",
      "KOLL": "10",
      "FORM": "3907",
      "VACP": "00",
      "ARNR": "0127",
      "FBNR": "090",
      "PSMG": 50,
      "FOBZ": "Run",
      "VABZ": "",
      "ZUSCHNITT": 20160428,
      "PRODUKTION": 0,
      "ANLIEFERUNG": 20160427,
      "VGL_DATUM": 20160420
    },
    {
      "FANR": "00102495",
      "FAPS": "00001",
      "FETO": "MH",
      "SAIS": "BO",
      "KOLL": "10",
      "FORM": "3907",
      "VACP": "01",
      "ARNR": "0127",
      "FBNR": "090 ",
      "PSMG": 50,
      "FOBZ": "Run",
      "VABZ": "bicolour",
      "ZUSCHNITT": 20160428,
      "PRODUKTION": 0,
      "ANLIEFERUNG": 20160427,
      "VGL_DATUM": 20160420
    },
    {
      "FANR": "00102492",
      "FAPS": "00001",
      "FETO": "ME",
      "SAIS": "BO",
      "KOLL": "10",
      "FORM": "3901",
      "VACP": "90",
      "ARNR": "0176",
      "FBNR": "D918",
      "PSMG": 94,
      "FOBZ": "Athletic",
      "VABZ": "Pure",
      "ZUSCHNITT": 20160418,
      "PRODUKTION": 0,
      "ANLIEFERUNG": 20160502,
      "VGL_DATUM": 20160420
    },
    {
      "FANR": "00102493",
      "FAPS": "00001",
      "FETO": "ME",
      "SAIS": "BO",
      "KOLL": "10",
      "FORM": "3901",
      "VACP": "90",
      "ARNR": "0176",
      "FBNR": "D801",
      "PSMG": 101,
      "FOBZ": "Athletic",
      "VABZ": "Pure",
      "ZUSCHNITT": 20160418,
      "PRODUKTION": 0,
      "ANLIEFERUNG": 20160502,
      "VGL_DATUM": 20160420
    },
    {
      "FANR": "00102206",
      "FAPS": "00001",
      "FETO": "ME",
      "SAIS": "BO",
      "KOLL": "10",
      "FORM": "2397",
      "VACP": "00",
      "ARNR": "0176",
      "FBNR": "236R",
      "PSMG": 129,
      "FOBZ": "Skinny",
      "VABZ": "Pure",
      "ZUSCHNITT": 20160412,
      "PRODUKTION": 0,
      "ANLIEFERUNG": 20160428,
      "VGL_DATUM": 20160420
    },
    {
      "FANR": "00102204",
      "FAPS": "00001",
      "FETO": "ME",
      "SAIS": "BO",
      "KOLL": "10",
      "FORM": "2397",
      "VACP": "00",
      "ARNR": "0176",
      "FBNR": "011R",
      "PSMG": 130,
      "FOBZ": "Skinny",
      "VABZ": "Pure",
      "ZUSCHNITT": 20160412,
      "PRODUKTION": 0,
      "ANLIEFERUNG": 20160426,
      "VGL_DATUM": 20160420
    },
    {
      "FANR": "00102203",
      "FAPS": "00001",
      "FETO": "ME",
      "SAIS": "BO",
      "KOLL": "10",
      "FORM": "2397",
      "VACP": "00",
      "ARNR": "0176  ",
      "FBNR": "051R",
      "PSMG": 134,
      "FOBZ": "Skinny",
      "VABZ": "Pure",
      "ZUSCHNITT": 20160412,
      "PRODUKTION": 0,
      "ANLIEFERUNG": 20160428,
      "VGL_DATUM": 20160420
    },
    {
      "FANR": "00102207",
      "FAPS": "00001",
      "FETO": "ME",
      "SAIS": "BO",
      "KOLL": "10",
      "FORM": "2397",
      "VACP": "00",
      "ARNR": "0176",
      "FBNR": "687R",
      "PSMG": 136,
      "FOBZ": "Skinny",
      "VABZ": "Pure",
      "ZUSCHNITT": 20160412,
      "PRODUKTION": 0,
      "ANLIEFERUNG": 20160428,
      "VGL_DATUM": 20160420
    },
    {
      "FANR": "00102205",
      "FAPS": "00001",
      "FETO": "ME",
      "SAIS": "BO",
      "KOLL": "10",
      "FORM": "2397",
      "VACP": "00",
      "ARNR": "0176",
      "FBNR": "227R",
      "PSMG": 137,
      "FOBZ": "Skinny",
      "VABZ": "Pure",
      "ZUSCHNITT": 20160412,
      "PRODUKTION": 0,
      "ANLIEFERUNG": 20160428,
      "VGL_DATUM": 20160420
    },
    {
      "FANR": "00102208",
      "FAPS": "00001",
      "FETO": "ME",
      "SAIS": "BO",
      "KOLL": "10",
      "FORM": "2397",
      "VACP": "00",
      "ARNR": "0176",
      "FBNR": "467R",
      "PSMG": 146,
      "FOBZ": "Skinny",
      "VABZ": "Pure",
      "ZUSCHNITT": 20160412,
      "PRODUKTION": 0,
      "ANLIEFERUNG": 20160428,
      "VGL_DATUM": 20160420
    },
    {
      "FANR": "00101834",
      "FAPS": "00001",
      "FETO": "ME",
      "SAIS": "BO",
      "KOLL": "10",
      "FORM": "3359",
      "VACP": "90",
      "ARNR": "0336",
      "FBNR": "D398",
      "PSMG": 294,
      "FOBZ": "Sexy",
      "VABZ": "Boyfriend New",
      "ZUSCHNITT": 20160329,
      "PRODUKTION": 0,
      "ANLIEFERUNG": 20160420,
      "VGL_DATUM": 20160420
    },
    {
      "FANR": "00102326",
      "FAPS": "00001",
      "FETO": "YI",
      "SAIS": "BO",
      "KOLL": "10",
      "FORM": "5456",
      "VACP": "00",
      "ARNR": "0375",
      "FBNR": "802R",
      "PSMG": 300,
      "FOBZ": "Dream",
      "VABZ": "Authentic",
      "ZUSCHNITT": 0,
      "PRODUKTION": 0,
      "ANLIEFERUNG": 20160503,
      "VGL_DATUM": 20160420
    },
    {
      "FANR": "00101732",
      "FAPS": "00001",
      "FETO": "FS",
      "SAIS": "BO",
      "KOLL": "10",
      "FORM": "2383",
      "VACP": "90",
      "ARNR": "0336",
      "FBNR": "D825",
      "PSMG": 302,
      "FOBZ": "Sexy Cropped",
      "VABZ": "",
      "ZUSCHNITT": 20160506,
      "PRODUKTION": 0,
      "ANLIEFERUNG": 20160509,
      "VGL_DATUM": 20160420
    },
    {
      "FANR": "00101536",
      "FAPS": "00001",
      "FETO": "FS",
      "SAIS": "BO",
      "KOLL": "10",
      "FORM": "2397",
      "VACP": "90",
      "ARNR": "0176",
      "FBNR": "D547",
      "PSMG": 302,
      "FOBZ": "Skinny",
      "VABZ": "Pure",
      "ZUSCHNITT": 20160419,
      "PRODUKTION": 0,
      "ANLIEFERUNG": 20160422,
      "VGL_DATUM": 20160420
    },
    {
      "FANR": "00101831",
      "FAPS": "00001",
      "FETO": "YI",
      "SAIS": "BO",
      "KOLL": "10",
      "FORM": "5240",
      "VACP": "97",
      "ARNR": "0380",
      "FBNR": "D336",
      "PSMG": 307,
      "FOBZ": "Angela",
      "VABZ": "",
      "ZUSCHNITT": 0,
      "PRODUKTION": 0,
      "ANLIEFERUNG": 20160420,
      "VGL_DATUM": 20160420
    },
    {
      "FANR": "00101823",
      "FAPS": "00001",
      "FETO": "YI",
      "SAIS": "BO",
      "KOLL": "10",
      "FORM": "2383",
      "VACP": 90,
      "ARNR": "0336",
      "FBNR": "D403",
      "PSMG": 313,
      "FOBZ": "Sexy Cropped",
      "VABZ": "",
      "ZUSCHNITT": 0,
      "PRODUKTION": 0,
      "ANLIEFERUNG": 20160426,
      "VGL_DATUM": 20160420
    },
    {
      "FANR": "00102268",
      "FAPS": "00001",
      "FETO": "MD",
      "SAIS": "BO",
      "KOLL": "10",
      "FORM": "5927",
      "VACP": "00",
      "ARNR": "0421",
      "FBNR": "207",
      "PSMG": 399,
      "FOBZ": "Conny",
      "VABZ": "Chic",
      "ZUSCHNITT": 20160421,
      "PRODUKTION": 0,
      "ANLIEFERUNG": 20160502,
      "VGL_DATUM": 20160420
    },
    {
      "FANR": "00103273",
      "FAPS": "00001",
      "FETO": "MD",
      "SAIS": "DP",
      "KOLL": "DD",
      "FORM": "5212",
      "VACP": "00",
      "ARNR": "0127L",
      "FBNR": "090",
      "PSMG": "150",
      "FOBZ": "Ankle",
      "VABZ": "",
      "ZUSCHNITT": 0,
      "PRODUKTION": 20160614,
      "ANLIEFERUNG": 0,
      "VGL_DATUM": 20160420
    },
    {
      "FANR": "00103106",
      "FAPS": "00001",
      "FETO": "MD",
      "SAIS": "DP",
      "KOLL": "DD",
      "FORM": "5212",
      "VACP": "00",
      "ARNR": "0127L",
      "FBNR": "090",
      "PSMG": "150",
      "FOBZ": "Ankle",
      "VABZ": "",
      "ZUSCHNITT": 0,
      "PRODUKTION": 20160531,
      "ANLIEFERUNG": 0,
      "VGL_DATUM": 20160420
    },
    {
      "FANR": "00084569",
      "FAPS": "00001",
      "FETO": "CC",
      "SAIS": "DP",
      "KOLL": "10",
      "FORM": "5040",
      "VACP": "90",
      "ARNR": "0309L",
      "FBNR": "D728",
      "PSMG": 1000,
      "FOBZ": "Melanie",
      "VABZ": " ",
      "ZUSCHNITT": 20130201,
      "PRODUKTION": 20160524,
      "ANLIEFERUNG": 0,
      "VGL_DATUM": 20160420
    },
    {
      "FANR": "00086789",
      "FAPS": "00001",
      "FETO": "MD",
      "SAIS": "DP",
      "KOLL": "10",
      "FORM": "5546",
      "VACP": "00",
      "ARNR": "0128L",
      "FBNR": "090",
      "PSMG": 1000,
      "FOBZ": "Legging",
      "VABZ": "Fit",
      "ZUSCHNITT": 0,
      "PRODUKTION": 20160524,
      "ANLIEFERUNG": 0,
      "VGL_DATUM": 20160420
    },
    {
      "FANR": "00090579",
      "FAPS": "00001",
      "FETO": "FS",
      "SAIS": "DP",
      "KOLL": "10",
      "FORM": "5401",
      "VACP": "90",
      "ARNR": "0355L",
      "FBNR": "D824",
      "PSMG": 500,
      "FOBZ": "Dream",
      "VABZ": "",
      "ZUSCHNITT": 20140407,
      "PRODUKTION": 20160518,
      "ANLIEFERUNG": 0,
      "VGL_DATUM": 20160420
    },
    {
      "FANR": "00100603",
      "FAPS": "00001",
      "FETO": "AP",
      "SAIS": "DP",
      "KOLL": "10",
      "FORM": "5286",
      "VACP": "00",
      "ARNR": "0127L",
      "FBNR": "090",
      "PSMG": 500,
      "FOBZ": "Dream Ankle",
      "VABZ": "Luxury",
      "ZUSCHNITT": 20151231,
      "PRODUKTION": 20160531,
      "ANLIEFERUNG": 0,
      "VGL_DATUM": 20160420
    },
    {
      "FANR": "00100602",
      "FAPS": "00001",
      "FETO": "AP",
      "SAIS": "DP",
      "KOLL": "10",
      "FORM": "5286",
      "VACP": "00",
      "ARNR": "0127L",
      "FBNR": "090",
      "PSMG": 500,
      "FOBZ": "Dream Ankle",
      "VABZ": "Luxury",
      "ZUSCHNITT": 20151231,
      "PRODUKTION": 20160531,
      "ANLIEFERUNG": 0,
      "VGL_DATUM": 20160420
    },
    {
      "FANR": "00101525",
      "FAPS": "00001",
      "FETO": "ME",
      "SAIS": "DP",
      "KOLL": "10",
      "FORM": "5457",
      "VACP": "00",
      "ARNR": "0375L",
      "FBNR": "226W",
      "PSMG": 750,
      "FOBZ": "Dream Skinny",
      "VABZ": "Authentic",
      "ZUSCHNITT": 20160225,
      "PRODUKTION": 20160524,
      "ANLIEFERUNG": 0,
      "VGL_DATUM": 20160420
    },
    {
      "FANR": "00102532",
      "FAPS": "00001",
      "FETO": "YI",
      "SAIS": "DP",
      "KOLL": "10",
      "FORM": "5240",
      "VACP": "87",
      "ARNR": "0380L",
      "FBNR": "D845",
      "PSMG": 1000,
      "FOBZ": "Angela",
      "VABZ": " ",
      "ZUSCHNITT": 0,
      "PRODUKTION": 20160607,
      "ANLIEFERUNG": 0,
      "VGL_DATUM": 20160420
    },
    {
      "FANR": "00102537",
      "FAPS": "00001",
      "FETO": "BV",
      "SAIS": "DP",
      "KOLL": "10",
      "FORM": "5401",
      "VACP": "90",
      "ARNR": "0355L",
      "FBNR": "D999",
      "PSMG": 2000,
      "FOBZ": "Dream",
      "VABZ": "",
      "ZUSCHNITT": 20160505,
      "PRODUKTION": 20160525,
      "ANLIEFERUNG": 0,
      "VGL_DATUM": 20160420
    },
    {
      "FANR": "00102563",
      "FAPS": "00001",
      "FETO": "BV",
      "SAIS": "DP",
      "KOLL": "10",
      "FORM": "5909",
      "VACP": "80",
      "ARNR": "0380L",
      "FBNR": "D801",
      "PSMG": 1000,
      "FOBZ": "Carrie Pipe",
      "VABZ": "",
      "ZUSCHNITT": 20160516,
      "PRODUKTION": 20160713,
      "ANLIEFERUNG": 0,
      "VGL_DATUM": 20160420
    },
    {
      "FANR": "00102564",
      "FAPS": "00001",
      "FETO": "BV",
      "SAIS": "DP",
      "KOLL": "10",
      "FORM": "5909",
      "VACP": "80",
      "ARNR": "0380L",
      "FBNR": "D999",
      "PSMG": 750,
      "FOBZ": "Carrie Pipe",
      "VABZ": "",
      "ZUSCHNITT": 0,
      "PRODUKTION": 20160713,
      "ANLIEFERUNG": 0,
      "VGL_DATUM": 20160420
    },
    {
      "FANR": "00102565",
      "FAPS": "00001",
      "FETO": "BV",
      "SAIS": "DP",
      "KOLL": "10",
      "FORM": "5401",
      "VACP": "90",
      "ARNR": "0355L",
      "FBNR": "D999",
      "PSMG": 1500,
      "FOBZ": "Dream",
      "VABZ": "",
      "ZUSCHNITT": 20160516,
      "PRODUKTION": 20160713,
      "ANLIEFERUNG": 0,
      "VGL_DATUM": 20160420
    },
    {
      "FANR": "00102566",
      "FAPS": "00001",
      "FETO": "BV",
      "SAIS": "DP",
      "KOLL": "10",
      "FORM": "5401",
      "VACP": "90",
      "ARNR": "0355L",
      "FBNR": "D801",
      "PSMG": 1000,
      "FOBZ": "Dream",
      "VABZ": "",
      "ZUSCHNITT": 20160518,
      "PRODUKTION": 20160713,
      "ANLIEFERUNG": 0,
      "VGL_DATUM": 20160420
    },
    {
      "FANR": "00102567",
      "FAPS": "00001",
      "FETO": "BV",
      "SAIS": "DP",
      "KOLL": "10",
      "FORM": "5240",
      "VACP": "87",
      "ARNR": "0380L",
      "FBNR": "D801",
      "PSMG": 1000,
      "FOBZ": "Angela",
      "VABZ": "",
      "ZUSCHNITT": 20160516,
      "PRODUKTION": 20160713,
      "ANLIEFERUNG": 0,
      "VGL_DATUM": 20160420
    },
    {
      "FANR": "00102568",
      "FAPS": "00001",
      "FETO": "BV",
      "SAIS": "DP",
      "KOLL": "10",
      "FORM": "5040",
      "VACP": "87",
      "ARNR": "0380L",
      "FBNR": "D801",
      "PSMG": 1000,
      "FOBZ": "Melanie",
      "VABZ": "",
      "ZUSCHNITT": 20160512,
      "PRODUKTION": 20160713,
      "ANLIEFERUNG": 0,
      "VGL_DATUM": 20160420
    },
    {
      "FANR": "00102569",
      "FAPS": "00001",
      "FETO": "BV",
      "SAIS": "DP",
      "KOLL": "10",
      "FORM": "5402",
      "VACP": 90,
      "ARNR": "0355L",
      "FBNR": "D999",
      "PSMG": 1500,
      "FOBZ": "Dream Skinny",
      "VABZ": "",
      "ZUSCHNITT": 0,
      "PRODUKTION": 20160713,
      "ANLIEFERUNG": 0,
      "VGL_DATUM": 20160420
    },
    {
      "FANR": "00102570",
      "FAPS": "00001",
      "FETO": "BV",
      "SAIS": "DP",
      "KOLL": "10",
      "FORM": "5402",
      "VACP": "90",
      "ARNR": "0355L",
      "FBNR": "D801",
      "PSMG": 1500,
      "FOBZ": "Dream Skinny",
      "VABZ": "",
      "ZUSCHNITT": 0,
      "PRODUKTION": 20160713,
      "ANLIEFERUNG": 0,
      "VGL_DATUM": 20160420
    },
    {
      "FANR": "00102571",
      "FAPS": "00001",
      "FETO": "BV",
      "SAIS": "DP",
      "KOLL": "10",
      "FORM": "5240",
      "VACP": "87",
      "ARNR": "0380L",
      "FBNR": "D999",
      "PSMG": 750,
      "FOBZ": "Angela",
      "VABZ": "",
      "ZUSCHNITT": 0,
      "PRODUKTION": 20160713,
      "ANLIEFERUNG": 0,
      "VGL_DATUM": 20160420
    },
    {
      "FANR": "00102572",
      "FAPS": "00001",
      "FETO": "BV",
      "SAIS": "DP",
      "KOLL": "10",
      "FORM": "5040",
      "VACP": "87",
      "ARNR": "0380L",
      "FBNR": "D999",
      "PSMG": 1000,
      "FOBZ": "Melanie",
      "VABZ": "",
      "ZUSCHNITT": 20160518,
      "PRODUKTION": 20160713,
      "ANLIEFERUNG": 0,
      "VGL_DATUM": 20160420
    },
    {
      "FANR": "00102573",
      "FAPS": "00001",
      "FETO": "BV",
      "SAIS": "DP",
      "KOLL": "10",
      "FORM": "5401",
      "VACP": "90",
      "ARNR": "0355L ",
      "FBNR": "D999",
      "PSMG": 1500,
      "FOBZ": "Dream",
      "VABZ": "",
      "ZUSCHNITT": 0,
      "PRODUKTION": 20160713,
      "ANLIEFERUNG": 0,
      "VGL_DATUM": 20160420
    },
    {
      "FANR": "00102574",
      "FAPS": "00001",
      "FETO": "BV",
      "SAIS": "DP",
      "KOLL": "10",
      "FORM": "5401",
      "VACP": "90",
      "ARNR": "0355L ",
      "FBNR": "D801",
      "PSMG": 1000,
      "FOBZ": "Dream",
      "VABZ": "",
      "ZUSCHNITT": 0,
      "PRODUKTION": 20160713,
      "ANLIEFERUNG": 0,
      "VGL_DATUM": 20160420
    },
    {
      "FANR": "00102575",
      "FAPS": "00001",
      "FETO": "BV",
      "SAIS": "DP",
      "KOLL": "10",
      "FORM": "5240",
      "VACP": "87",
      "ARNR": "0380L ",
      "FBNR": "D801",
      "PSMG": 1000,
      "FOBZ": "Angela",
      "VABZ": "",
      "ZUSCHNITT": 0,
      "PRODUKTION": 20160713,
      "ANLIEFERUNG": 0,
      "VGL_DATUM": 20160420
    },
    {
      "FANR": "00102576",
      "FAPS": "00001",
      "FETO": "BV",
      "SAIS": "DP",
      "KOLL": "10",
      "FORM": "5040",
      "VACP": "87",
      "ARNR": "0380L ",
      "FBNR": "D801",
      "PSMG": 1000,
      "FOBZ": "Melanie",
      "VABZ": "",
      "ZUSCHNITT": 0,
      "PRODUKTION": 20160713,
      "ANLIEFERUNG": 0,
      "VGL_DATUM": 20160420
    },
    {
      "FANR": "00102577",
      "FAPS": "00001",
      "FETO": "BV",
      "SAIS": "DP",
      "KOLL": "10",
      "FORM": "5402",
      "VACP": "90",
      "ARNR": "0355L ",
      "FBNR": "D999",
      "PSMG": 1500,
      "FOBZ": "Dream Skinny",
      "VABZ": "",
      "ZUSCHNITT": 0,
      "PRODUKTION": 20160713,
      "ANLIEFERUNG": 0,
      "VGL_DATUM": 20160420
    },
    {
      "FANR": "00102578",
      "FAPS": "00001",
      "FETO": "BV",
      "SAIS": "DP",
      "KOLL": "10",
      "FORM": "5402",
      "VACP": "90",
      "ARNR": "0355L ",
      "FBNR": "D801",
      "PSMG": 1500,
      "FOBZ": "Dream Skinny",
      "VABZ": "",
      "ZUSCHNITT": 0,
      "PRODUKTION": 20160713,
      "ANLIEFERUNG": 0,
      "VGL_DATUM": 20160420
    },
    {
      "FANR": "00102579",
      "FAPS": "00001",
      "FETO": "BV",
      "SAIS": "DP",
      "KOLL": "10",
      "FORM": "5240",
      "VACP": "87",
      "ARNR": "0380L",
      "FBNR": "D999",
      "PSMG": "750",
      "FOBZ": "Angela",
      "VABZ": "",
      "ZUSCHNITT": 0,
      "PRODUKTION": 20160713,
      "ANLIEFERUNG": 0,
      "VGL_DATUM": 20160420
    },
    {
      "FANR": "00102580",
      "FAPS": "00001",
      "FETO": "BV",
      "SAIS": "DP",
      "KOLL": "10",
      "FORM": "5040",
      "VACP": "87",
      "ARNR": "0380L",
      "FBNR": "D999",
      "PSMG": 1000,
      "FOBZ": "Melanie",
      "VABZ": "",
      "ZUSCHNITT": 0,
      "PRODUKTION": 20160713,
      "ANLIEFERUNG": 0,
      "VGL_DATUM": 20160420
    },
    {
      "FANR": "00102581",
      "FAPS": "00001",
      "FETO": "BV",
      "SAIS": "DP",
      "KOLL": "10",
      "FORM": "5401",
      "VACP": "90",
      "ARNR": "0355L ",
      "FBNR": "D999",
      "PSMG": 1000,
      "FOBZ": "Dream",
      "VABZ": "",
      "ZUSCHNITT": 0,
      "PRODUKTION": 20160713,
      "ANLIEFERUNG": 0,
      "VGL_DATUM": 20160420
    },
    {
      "FANR": "00102582",
      "FAPS": "00001",
      "FETO": "BV",
      "SAIS": "DP",
      "KOLL": "10",
      "FORM": "5401",
      "VACP": "90",
      "ARNR": "0355L ",
      "FBNR": "D801",
      "PSMG": 1000,
      "FOBZ": "Dream",
      "VABZ": "",
      "ZUSCHNITT": 0,
      "PRODUKTION": 20160713,
      "ANLIEFERUNG": 0,
      "VGL_DATUM": 20160420
    },
    {
      "FANR": "00102583",
      "FAPS": "00001",
      "FETO": "BV",
      "SAIS": "DP",
      "KOLL": "10",
      "FORM": "5040",
      "VACP": "87",
      "ARNR": "0380L",
      "FBNR": "D801",
      "PSMG": 1000,
      "FOBZ": "Melanie",
      "VABZ": "",
      "ZUSCHNITT": 0,
      "PRODUKTION": 20160713,
      "ANLIEFERUNG": 0,
      "VGL_DATUM": 20160420
    },
    {
      "FANR": "00102593",
      "FAPS": "00001",
      "FETO": "FS",
      "SAIS": "DP",
      "KOLL": "10",
      "FORM": "5909",
      "VACP": "80",
      "ARNR": "0380L",
      "FBNR": "D845",
      "PSMG": 1000,
      "FOBZ": "Carrie Pipe",
      "VABZ": "",
      "ZUSCHNITT": 0,
      "PRODUKTION": 20160714,
      "ANLIEFERUNG": 0,
      "VGL_DATUM": 20160420
    },
    {
      "FANR": "00102594",
      "FAPS": "00001",
      "FETO": "FS",
      "SAIS": "DP",
      "KOLL": "10",
      "FORM": "5240",
      "VACP": "87",
      "ARNR": "0380L",
      "FBNR": "D845",
      "PSMG": 1000,
      "FOBZ": "Angela",
      "VABZ": "",
      "ZUSCHNITT": 0,
      "PRODUKTION": 20160714,
      "ANLIEFERUNG": 0,
      "VGL_DATUM": 20160420
    },
    {
      "FANR": "00102595",
      "FAPS": "00001",
      "FETO": "FS",
      "SAIS": "DP",
      "KOLL": "10",
      "FORM": "5240",
      "VACP": "87",
      "ARNR": "0380L",
      "FBNR": "D845",
      "PSMG": 1000,
      "FOBZ": "Angela",
      "VABZ": "",
      "ZUSCHNITT": 0,
      "PRODUKTION": 20160714,
      "ANLIEFERUNG": 0,
      "VGL_DATUM": 20160420
    },
    {
      "FANR": "00102586",
      "FAPS": "00001",
      "FETO": "EL",
      "SAIS": "DP",
      "KOLL": "10",
      "FORM": "5293",
      "VACP": "00",
      "ARNR": "0128L",
      "FBNR": "090 ",
      "PSMG": 500,
      "FOBZ": "Anna",
      "VABZ": "Zip New",
      "ZUSCHNITT": 0,
      "PRODUKTION": 20160712,
      "ANLIEFERUNG": 0,
      "VGL_DATUM": 20160420
    },
    {
      "FANR": "00102596",
      "FAPS": "00001",
      "FETO": "ME",
      "SAIS": "DP",
      "KOLL": "10",
      "FORM": "5402",
      "VACP": "90",
      "ARNR": "0355L",
      "FBNR": "D821",
      "PSMG": 1000,
      "FOBZ": "Dream Skinny",
      "VABZ": "",
      "ZUSCHNITT": 20160510,
      "PRODUKTION": 20160714,
      "ANLIEFERUNG": 0,
      "VGL_DATUM": 20160420
    },
    {
      "FANR": "00102598",
      "FAPS": "00001",
      "FETO": "YI",
      "SAIS": "DP",
      "KOLL": "10",
      "FORM": "5040",
      "VACP": "87",
      "ARNR": "0380L",
      "FBNR": "D845",
      "PSMG": 1000,
      "FOBZ": "Melanie",
      "VABZ": "",
      "ZUSCHNITT": 0,
      "PRODUKTION": 20160714,
      "ANLIEFERUNG": 0,
      "VGL_DATUM": 20160420
    },
    {
      "FANR": "00102599",
      "FAPS": "00001",
      "FETO": "YI",
      "SAIS": "DP",
      "KOLL": "10",
      "FORM": "5040",
      "VACP": "87",
      "ARNR": "0380L",
      "FBNR": "D845",
      "PSMG": 1000,
      "FOBZ": "Melanie",
      "VABZ": "",
      "ZUSCHNITT": 0,
      "PRODUKTION": 20160714,
      "ANLIEFERUNG": 0,
      "VGL_DATUM": 20160420
    },
    {
      "FANR": "00102600",
      "FAPS": "00001",
      "FETO": "YI",
      "SAIS": "DP",
      "KOLL": "10",
      "FORM": "5040",
      "VACP": "87",
      "ARNR": "0380L",
      "FBNR": "D845",
      "PSMG": 1000,
      "FOBZ": "Melanie",
      "VABZ": "",
      "ZUSCHNITT": 0,
      "PRODUKTION": 20160714,
      "ANLIEFERUNG": 0,
      "VGL_DATUM": 20160420
    },
    {
      "FANR": "00102605",
      "FAPS": "00001",
      "FETO": "BV",
      "SAIS": "DP",
      "KOLL": "10",
      "FORM": "5040",
      "VACP": "87",
      "ARNR": "0380L",
      "FBNR": "D999",
      "PSMG": 1000,
      "FOBZ": "Melanie",
      "VABZ": "",
      "ZUSCHNITT": 20160510,
      "PRODUKTION": 20160525,
      "ANLIEFERUNG": 0,
      "VGL_DATUM": 20160420
    },
    {
      "FANR": "00102606",
      "FAPS": "00001",
      "FETO": "BV",
      "SAIS": "DP",
      "KOLL": "10",
      "FORM": "5240",
      "VACP": "87",
      "ARNR": "0380L",
      "FBNR": "D999",
      "PSMG": 1000,
      "FOBZ": "Angela",
      "VABZ": "",
      "ZUSCHNITT": 20160512,
      "PRODUKTION": 20160525,
      "ANLIEFERUNG": 0,
      "VGL_DATUM": 20160420
    },
    {
      "FANR": "00102608",
      "FAPS": "00001",
      "FETO": "ME",
      "SAIS": "DP",
      "KOLL": "10",
      "FORM": "5402",
      "VACP": "90",
      "ARNR": "0355L",
      "FBNR": "D821",
      "PSMG": 750,
      "FOBZ": "Dream Skinny",
      "VABZ": "",
      "ZUSCHNITT": 20160510,
      "PRODUKTION": 20160526,
      "ANLIEFERUNG": 0,
      "VGL_DATUM": 20160420
    },
    {
      "FANR": "00102611",
      "FAPS": "00001",
      "FETO": "YI",
      "SAIS": "DP",
      "KOLL": "10",
      "FORM": "5040",
      "VACP": "87",
      "ARNR": "0380L",
      "FBNR": "D845",
      "PSMG": 600,
      "FOBZ": "Melanie",
      "VABZ": "",
      "ZUSCHNITT": 0,
      "PRODUKTION": 20160602,
      "ANLIEFERUNG": 0,
      "VGL_DATUM": 20160420
    },
    {
      "FANR": "00103100",
      "FAPS": "00001",
      "FETO": "BV",
      "SAIS": "DP",
      "KOLL": "10",
      "FORM": "5402",
      "VACP": "90",
      "ARNR": "0355L",
      "FBNR": "D999",
      "PSMG": 1000,
      "FOBZ": "Dream Skinny",
      "VABZ": "",
      "ZUSCHNITT": 20160516,
      "PRODUKTION": 20160601,
      "ANLIEFERUNG": 0,
      "VGL_DATUM": 20160420
    },
    {
      "FANR": "00103101",
      "FAPS": "00001",
      "FETO": "BV",
      "SAIS": "DP",
      "KOLL": "10",
      "FORM": "5401",
      "VACP": "90",
      "ARNR": "0355L",
      "FBNR": "D801",
      "PSMG": 1500,
      "FOBZ": "Dream",
      "VABZ": "",
      "ZUSCHNITT": 20160519,
      "PRODUKTION": 20160601,
      "ANLIEFERUNG": 0,
      "VGL_DATUM": 20160420
    },
    {
      "FANR": "00103102",
      "FAPS": "00001",
      "FETO": "BV",
      "SAIS": "DP",
      "KOLL": "10",
      "FORM": "5240",
      "VACP": "87",
      "ARNR": "0380L ",
      "FBNR": "D801",
      "PSMG": 1000,
      "FOBZ": "Angela",
      "VABZ": "",
      "ZUSCHNITT": 20160519,
      "PRODUKTION": 20160601,
      "ANLIEFERUNG": 0,
      "VGL_DATUM": 20160420
    },
    {
      "FANR": "00103103",
      "FAPS": "00001",
      "FETO": "BV",
      "SAIS": "DP",
      "KOLL": "10",
      "FORM": "5909",
      "VACP": "80",
      "ARNR": "0380L",
      "FBNR": "D801",
      "PSMG": 1000,
      "FOBZ": "Carrie Pipe",
      "VABZ": "",
      "ZUSCHNITT": 20160518,
      "PRODUKTION": 20160601,
      "ANLIEFERUNG": 0,
      "VGL_DATUM": 20160420
    },
    {
      "FANR": "00103104",
      "FAPS": "00001",
      "FETO": "BV",
      "SAIS": "DP",
      "KOLL": "10",
      "FORM": "5040",
      "VACP": "87",
      "ARNR": "0380L",
      "FBNR": "D801",
      "PSMG": 1000,
      "FOBZ": "Melanie",
      "VABZ": "",
      "ZUSCHNITT": 20160518,
      "PRODUKTION": 20160601,
      "ANLIEFERUNG": 0,
      "VGL_DATUM": 20160420
    },
    {
      "FANR": "00103105",
      "FAPS": "00001",
      "FETO": "EL",
      "SAIS": "DP",
      "KOLL": "10",
      "FORM": "5293",
      "VACP": "00",
      "ARNR": "0128L",
      "FBNR": "090",
      "PSMG": 300,
      "FOBZ": "Anna",
      "VABZ": "Zip New",
      "ZUSCHNITT": 0,
      "PRODUKTION": 20160531,
      "ANLIEFERUNG": 0,
      "VGL_DATUM": 20160420
    },
    {
      "FANR": "00103107",
      "FAPS": "00001",
      "FETO": "FS",
      "SAIS": "DP",
      "KOLL": "10",
      "FORM": "2397",
      "VACP": "90",
      "ARNR": "0176L",
      "FBNR": "D547",
      "PSMG": 300,
      "FOBZ": "Skinny",
      "VABZ": "Pure",
      "ZUSCHNITT": 0,
      "PRODUKTION": 20160602,
      "ANLIEFERUNG": 0,
      "VGL_DATUM": 20160420
    },
    {
      "FANR": "00103108",
      "FAPS": "00001",
      "FETO": "FS",
      "SAIS": "DP",
      "KOLL": "10",
      "FORM": "5240",
      "VACP": "87",
      "ARNR": "0380L",
      "FBNR": "D845",
      "PSMG": 1500,
      "FOBZ": "Angela",
      "VABZ": "",
      "ZUSCHNITT": 0,
      "PRODUKTION": 20160602,
      "ANLIEFERUNG": 0,
      "VGL_DATUM": 20160420
    },
    {
      "FANR": "00103109",
      "FAPS": "00001",
      "FETO": "FS",
      "SAIS": "DP",
      "KOLL": "10",
      "FORM": "5240",
      "VACP": "97",
      "ARNR": "0380L ",
      "FBNR": "D793",
      "PSMG": 500,
      "FOBZ": "Angela",
      "VABZ": "",
      "ZUSCHNITT": 0,
      "PRODUKTION": 20160602,
      "ANLIEFERUNG": 0,
      "VGL_DATUM": 20160420
    },
    {
      "FANR": "00103110",
      "FAPS": "00001",
      "FETO": "FS",
      "SAIS": "DP",
      "KOLL": "10",
      "FORM": "5240",
      "VACP": "97",
      "ARNR": "0380L",
      "FBNR": "D525",
      "PSMG": 300,
      "FOBZ": "Angela",
      "VABZ": "",
      "ZUSCHNITT": 0,
      "PRODUKTION": 20160602,
      "ANLIEFERUNG": 0,
      "VGL_DATUM": 20160420
    },
    {
      "FANR": "00103111",
      "FAPS": "00001",
      "FETO": "FS",
      "SAIS": "DP",
      "KOLL": "10",
      "FORM": "5909",
      "VACP": "80",
      "ARNR": "0380L ",
      "FBNR": "D845",
      "PSMG": 1000,
      "FOBZ": "Carrie Pipe",
      "VABZ": "",
      "ZUSCHNITT": 0,
      "PRODUKTION": 20160602,
      "ANLIEFERUNG": 0,
      "VGL_DATUM": 20160420
    },
    {
      "FANR": "00103112",
      "FAPS": "00001",
      "FETO": "FS",
      "SAIS": "DP",
      "KOLL": "10",
      "FORM": "5040",
      "VACP": "97",
      "ARNR": "0380L ",
      "FBNR": "D793",
      "PSMG": 500,
      "FOBZ": "Melanie",
      "VABZ": "",
      "ZUSCHNITT": 0,
      "PRODUKTION": 20160602,
      "ANLIEFERUNG": 0,
      "VGL_DATUM": 20160420
    },
    {
      "FANR": "00103113",
      "FAPS": "00001",
      "FETO": "FS",
      "SAIS": "DP",
      "KOLL": "10",
      "FORM": "5040",
      "VACP": "97",
      "ARNR": "0380L ",
      "FBNR": "D525",
      "PSMG": 300,
      "FOBZ": "Melanie",
      "VABZ": "",
      "ZUSCHNITT": 0,
      "PRODUKTION": 20160602,
      "ANLIEFERUNG": 0,
      "VGL_DATUM": 20160420
    },
    {
      "FANR": "00103114",
      "FAPS": "00001",
      "FETO": "ME",
      "SAIS": "DP",
      "KOLL": "10",
      "FORM": "2397",
      "VACP": "90",
      "ARNR": "0176L",
      "FBNR": "D904",
      "PSMG": 300,
      "FOBZ": "Skinny",
      "VABZ": "Pure",
      "ZUSCHNITT": 0,
      "PRODUKTION": 20160602,
      "ANLIEFERUNG": 0,
      "VGL_DATUM": 20160420
    },
    {
      "FANR": "00103115",
      "FAPS": "00001",
      "FETO": "ME",
      "SAIS": "DP",
      "KOLL": "10",
      "FORM": "2397",
      "VACP": "90",
      "ARNR": "0176L",
      "FBNR": "D801",
      "PSMG": 300,
      "FOBZ": "Skinny",
      "VABZ": "Pure",
      "ZUSCHNITT": 20160510,
      "PRODUKTION": 20160602,
      "ANLIEFERUNG": 0,
      "VGL_DATUM": 20160420
    },
    {
      "FANR": "00103116",
      "FAPS": "00001",
      "FETO": "ME",
      "SAIS": "DP",
      "KOLL": "10",
      "FORM": "2397",
      "VACP": "90",
      "ARNR": "0176L ",
      "FBNR": "D999",
      "PSMG": 300,
      "FOBZ": "Skinny",
      "VABZ": "Pure",
      "ZUSCHNITT": 20160510,
      "PRODUKTION": 20160602,
      "ANLIEFERUNG": 0,
      "VGL_DATUM": 20160420
    },
    {
      "FANR": "00103117",
      "FAPS": "00001",
      "FETO": "ME",
      "SAIS": "DP",
      "KOLL": "10",
      "FORM": "2314",
      "VACP": "90",
      "ARNR": "0336L ",
      "FBNR": "D507",
      "PSMG": 400,
      "FOBZ": "Sexy Carrot",
      "VABZ": "",
      "ZUSCHNITT": 20160510,
      "PRODUKTION": 20160602,
      "ANLIEFERUNG": 0,
      "VGL_DATUM": 20160420
    },
    {
      "FANR": "00103120",
      "FAPS": "00001",
      "FETO": "ME",
      "SAIS": "DP",
      "KOLL": "10",
      "FORM": "5456",
      "VACP": "90",
      "ARNR": "0375L ",
      "FBNR": "D886",
      "PSMG": 400,
      "FOBZ": "Dream",
      "VABZ": "Authentic",
      "ZUSCHNITT": 20160516,
      "PRODUKTION": 20160602,
      "ANLIEFERUNG": 0,
      "VGL_DATUM": 20160420
    },
    {
      "FANR": "00103119",
      "FAPS": "00001",
      "FETO": "ME",
      "SAIS": "DP",
      "KOLL": "10",
      "FORM": "5401",
      "VACP": "90",
      "ARNR": "0355L ",
      "FBNR": "D925",
      "PSMG": 500,
      "FOBZ": "Dream",
      "VABZ": "",
      "ZUSCHNITT": 20160516,
      "PRODUKTION": 20160602,
      "ANLIEFERUNG": 0,
      "VGL_DATUM": 20160420
    },
    {
      "FANR": "00103124",
      "FAPS": "00001",
      "FETO": "YI",
      "SAIS": "DP",
      "KOLL": "10",
      "FORM": "5401",
      "VACP": "00",
      "ARNR": "0355L",
      "FBNR": "467R",
      "PSMG": 500,
      "FOBZ": "Dream",
      "VABZ": " ",
      "ZUSCHNITT": 0,
      "PRODUKTION": 20160602,
      "ANLIEFERUNG": 0,
      "VGL_DATUM": 20160420
    },
    {
      "FANR": "00103125",
      "FAPS": "00001",
      "FETO": "YI",
      "SAIS": "DP",
      "KOLL": "10",
      "FORM": "5401",
      "VACP": "90",
      "ARNR": "0355L ",
      "FBNR": "D850",
      "PSMG": 500,
      "FOBZ": "Dream",
      "VABZ": "",
      "ZUSCHNITT": 0,
      "PRODUKTION": 20160602,
      "ANLIEFERUNG": 0,
      "VGL_DATUM": 20160420
    },
    {
      "FANR": "00103126",
      "FAPS": "00001",
      "FETO": "YI",
      "SAIS": "DP",
      "KOLL": "10",
      "FORM": "5402",
      "VACP": "90",
      "ARNR": "0355L ",
      "FBNR": "D843",
      "PSMG": 400,
      "FOBZ": "Dream Skinny",
      "VABZ": "",
      "ZUSCHNITT": 0,
      "PRODUKTION": 20160602,
      "ANLIEFERUNG": 0,
      "VGL_DATUM": 20160420
    },
    {
      "FANR": "00103127",
      "FAPS": "00001",
      "FETO": "YI",
      "SAIS": "DP",
      "KOLL": "10",
      "FORM": "5412",
      "VACP": "90",
      "ARNR": "0375L ",
      "FBNR": "D873",
      "PSMG": 400,
      "FOBZ": "Dream Flared",
      "VABZ": "Authentic",
      "ZUSCHNITT": 0,
      "PRODUKTION": 20160602,
      "ANLIEFERUNG": 0,
      "VGL_DATUM": 20160420
    },
    {
      "FANR": "00103128",
      "FAPS": "00001",
      "FETO": "YI",
      "SAIS": "DP",
      "KOLL": "10",
      "FORM": "5040",
      "VACP": "87",
      "ARNR": "0380L",
      "FBNR": "D845",
      "PSMG": 2000,
      "FOBZ": "Melanie",
      "VABZ": "",
      "ZUSCHNITT": 0,
      "PRODUKTION": 20160614,
      "ANLIEFERUNG": 0,
      "VGL_DATUM": 20160420
    },
    {
      "FANR": "00103118",
      "FAPS": "00001",
      "FETO": "ME",
      "SAIS": "DP",
      "KOLL": "10",
      "FORM": "5402",
      "VACP": "90",
      "ARNR": "0355L",
      "FBNR": "D985",
      "PSMG": 400,
      "FOBZ": "Dream Skinny",
      "VABZ": "",
      "ZUSCHNITT": 20160510,
      "PRODUKTION": 20160602,
      "ANLIEFERUNG": 0,
      "VGL_DATUM": 20160420
    },
    {
      "FANR": "00103158",
      "FAPS": "00001",
      "FETO": "YI",
      "SAIS": "DP",
      "KOLL": "40",
      "VACP": "87",
      "ARNR": "0380L ",
      "FBNR": "D845",
      "PSMG": 1500,
      "FOBZ": "Melanie",
      "VABZ": "",
      "ZUSCHNITT": 0,
      "PRODUKTION": 20160616,
      "ANLIEFERUNG": 0,
      "VGL_DATUM": 20160420
    },
    {
      "FANR": "00103157",
      "FAPS": "00001",
      "FETO": "YI",
      "SAIS": "DP",
      "KOLL": "10",
      "FORM": "5240",
      "VACP": "07",
      "ARNR": "0380L ",
      "FBNR": "467R",
      "PSMG": 300,
      "FOBZ": "Angela",
      "VABZ": "",
      "ZUSCHNITT": 0,
      "PRODUKTION": 20160616,
      "ANLIEFERUNG": 0,
      "VGL_DATUM": 20160420
    },
    {
      "FANR": "00103159",
      "FAPS": "00001",
      "FETO": "YI",
      "SAIS": "DP",
      "KOLL": "10",
      "FORM": "5040",
      "VACP": "07",
      "ARNR": "0380L",
      "FBNR": "467R",
      "PSMG": 300,
      "FOBZ": "Melanie",
      "VABZ": "",
      "ZUSCHNITT": 0,
      "PRODUKTION": 20160616,
      "ANLIEFERUNG": 0,
      "VGL_DATUM": 20160420
    },
    {
      "FANR": "00103160",
      "FAPS": "00001",
      "FETO": "BV",
      "SAIS": "DP",
      "KOLL": "10",
      "FORM": "5401",
      "VACP": "90",
      "ARNR": "0355L",
      "FBNR": "D999",
      "PSMG": 2000,
      "FOBZ": "Dream",
      "VABZ": "",
      "ZUSCHNITT": 0,
      "PRODUKTION": 20160608,
      "ANLIEFERUNG": 0,
      "VGL_DATUM": 20160420
    },
    {
      "FANR": "00103161",
      "FAPS": "00001",
      "FETO": "BV",
      "SAIS": "DP",
      "KOLL": "10",
      "FORM": "5402",
      "VACP": "90",
      "ARNR": "0355L",
      "FBNR": "D801",
      "PSMG": 1000,
      "FOBZ": "Dream Skinny",
      "VABZ": "",
      "ZUSCHNITT": 0,
      "PRODUKTION": 20160608,
      "ANLIEFERUNG": 0,
      "VGL_DATUM": 20160420
    },
    {
      "FANR": "00103162",
      "FAPS": "00001",
      "FETO": "BV",
      "SAIS": "DP",
      "KOLL": "10",
      "FORM": "5240",
      "VACP": "87",
      "ARNR": "0380L ",
      "FBNR": "D999",
      "PSMG": 1000,
      "FOBZ": "Angela",
      "VABZ": "",
      "ZUSCHNITT": 0,
      "PRODUKTION": 20160608,
      "ANLIEFERUNG": 0,
      "VGL_DATUM": 20160420
    },
    {
      "FANR": "00103163",
      "FAPS": "00001",
      "FETO": "BV",
      "SAIS": "DP",
      "KOLL": "10",
      "FORM": "5909",
      "VACP": "80",
      "ARNR": "0380L ",
      "FBNR": "D999",
      "PSMG": 750,
      "FOBZ": "Carrie Pipe",
      "VABZ": "",
      "ZUSCHNITT": 0,
      "PRODUKTION": 20160608,
      "ANLIEFERUNG": 0,
      "VGL_DATUM": 20160420
    },
    {
      "FANR": "00103164",
      "FAPS": "00001",
      "FETO": "BV",
      "SAIS": "DP",
      "KOLL": "10",
      "FORM": "5040",
      "VACP": "87",
      "ARNR": "0380L",
      "FBNR": "D999",
      "PSMG": 1000,
      "FOBZ": "Melanie",
      "VABZ": "",
      "ZUSCHNITT": 0,
      "PRODUKTION": 20160608,
      "ANLIEFERUNG": 0,
      "VGL_DATUM": 20160420
    },
    {
      "FANR": "00103165",
      "FAPS": "00001",
      "FETO": "FS",
      "SAIS": "DP",
      "KOLL": "10",
      "FORM": "5240",
      "VACP": "87",
      "ARNR": "0380L",
      "FBNR": "D845",
      "PSMG": 1000,
      "FOBZ": "Angela",
      "VABZ": "",
      "ZUSCHNITT": 0,
      "PRODUKTION": 20160609,
      "ANLIEFERUNG": 0,
      "VGL_DATUM": 20160420
    },
    {
      "FANR": "00103168",
      "FAPS": "00001",
      "FETO": "ME",
      "SAIS": "DP",
      "KOLL": "10",
      "FORM": "2351",
      "VACP": "90",
      "ARNR": "0336L",
      "FBNR": "D662",
      "PSMG": 300,
      "FOBZ": "Laxy",
      "VABZ": "",
      "ZUSCHNITT": 0,
      "PRODUKTION": 20160609,
      "ANLIEFERUNG": 0,
      "VGL_DATUM": 20160420
    },
    {
      "FANR": "00103169",
      "FAPS": "00001",
      "FETO": "ME",
      "SAIS": "DP",
      "KOLL": "10",
      "FORM": "5909",
      "VACP": "90",
      "ARNR": "0380L",
      "FBNR": "D863",
      "PSMG": 300,
      "FOBZ": "Carrie Pipe",
      "VABZ": "",
      "ZUSCHNITT": 0,
      "PRODUKTION": 20160609,
      "ANLIEFERUNG": 0,
      "VGL_DATUM": 20160420
    },
    {
      "FANR": "00103170",
      "FAPS": "00001",
      "FETO": "ME",
      "SAIS": "DP",
      "KOLL": "10",
      "FORM": "5240",
      "VACP": "97",
      "ARNR": "0380L",
      "FBNR": "D929",
      "PSMG": 300,
      "FOBZ": "Angela",
      "VABZ": "",
      "ZUSCHNITT": 0,
      "PRODUKTION": 20160609,
      "ANLIEFERUNG": 0,
      "VGL_DATUM": 20160420
    },
    {
      "FANR": "00103171",
      "FAPS": "00001",
      "FETO": "ME",
      "SAIS": "DP",
      "KOLL": "10",
      "FORM": "5040",
      "VACP": "97",
      "ARNR": "0380L",
      "FBNR": "D929",
      "PSMG": 300,
      "FOBZ": "Melanie",
      "VABZ": "",
      "ZUSCHNITT": 0,
      "PRODUKTION": 20160609,
      "ANLIEFERUNG": 0,
      "VGL_DATUM": 20160420
    },
    {
      "FANR": "00103255",
      "FAPS": "00001",
      "FETO": "BV",
      "SAIS": "DP",
      "KOLL": "10",
      "FORM": "5401",
      "VACP": "90",
      "ARNR": "0355L ",
      "FBNR": "D801",
      "PSMG": 1060,
      "FOBZ": "Dream",
      "VABZ": "",
      "ZUSCHNITT": 0,
      "PRODUKTION": 20160615,
      "ANLIEFERUNG": 0,
      "VGL_DATUM": 20160420
    },
    {
      "FANR": "00103256",
      "FAPS": "00001",
      "FETO": "BV",
      "SAIS": "DP",
      "KOLL": "10",
      "FORM": "5402",
      "VACP": "90",
      "ARNR": "0355L",
      "FBNR": "D999",
      "PSMG": 800,
      "FOBZ": "Dream Skinny",
      "VABZ": "",
      "ZUSCHNITT": 0,
      "PRODUKTION": 20160615,
      "ANLIEFERUNG": 0,
      "VGL_DATUM": 20160420
    },
    {
      "FANR": "001032572",
      "FAPS": "00001",
      "FETO": "BV",
      "SAIS": "DP",
      "KOLL": "10",
      "FORM": "5040",
      "VACP": "87",
      "ARNR": "0380L ",
      "FBNR": "D999",
      "PSMG": 800,
      "FOBZ": "Melanie",
      "VABZ": "",
      "ZUSCHNITT": 0,
      "PRODUKTION": 20160615,
      "ANLIEFERUNG": 0,
      "VGL_DATUM": 20160420
    },
    {
      "FANR": "00103258",
      "FAPS": "00001",
      "FETO": "FS",
      "SAIS": "DP",
      "KOLL": "10",
      "FORM": "5240",
      "VACP": "87",
      "ARNR": "0380L",
      "FBNR": "D845",
      "PSMG": 1000,
      "FOBZ": "Angela",
      "VABZ": "",
      "ZUSCHNITT": 0,
      "PRODUKTION": 20160616,
      "ANLIEFERUNG": 0,
      "VGL_DATUM": 20160420
    },
    {
      "FANR": "00103259",
      "FAPS": "00001",
      "FETO": "FS",
      "SAIS": "DP",
      "KOLL": "10",
      "FORM": "5909",
      "VACP": "80",
      "ARNR": "0380L",
      "FBNR": "D845",
      "PSMG": 750,
      "FOBZ": "Carrie Pipe",
      "VABZ": "",
      "ZUSCHNITT": 0,
      "PRODUKTION": 20160616,
      "ANLIEFERUNG": 0,
      "VGL_DATUM": 20160420
    },
    {
      "FANR": "00103261",
      "FAPS": "00001",
      "FETO": "ME",
      "SAIS": "DP",
      "KOLL": "10",
      "FORM": "5457",
      "VACP": "90",
      "ARNR": "0375L",
      "FBNR": "D505",
      "PSMG": 400,
      "FOBZ": "Dream Skinny",
      "VABZ": "Authentic",
      "ZUSCHNITT": 0,
      "PRODUKTION": 20160616,
      "ANLIEFERUNG": 0,
      "VGL_DATUM": 20160420
    },
    {
      "FANR": "00103262",
      "FAPS": "00001",
      "FETO": "ME",
      "SAIS": "DP",
      "KOLL": "10",
      "FORM": "5456",
      "VACP": "90",
      "ARNR": "0375L",
      "FBNR": "D556",
      "PSMG": 300,
      "FOBZ": "Dream",
      "VABZ": "Authentic",
      "ZUSCHNITT": 0,
      "PRODUKTION": 20160616,
      "ANLIEFERUNG": 0,
      "VGL_DATUM": 20160420
    },
    {
      "FANR": "00103264",
      "FAPS": "00001",
      "FETO": "YI",
      "SAIS": "DP",
      "KOLL": "10",
      "FORM": "5040",
      "VACP": "87",
      "ARNR": "0380L",
      "FBNR": "D845",
      "PSMG": 1000,
      "FOBZ": "Melanie",
      "VABZ": "",
      "ZUSCHNITT": 0,
      "PRODUKTION": 20160616,
      "ANLIEFERUNG": 0,
      "VGL_DATUM": 20160420
    },
    {
      "FANR": "00103265",
      "FAPS": "00001",
      "FETO": "YI",
      "SAIS": "DP",
      "KOLL": "10",
      "FORM": "5401",
      "VACP": "90",
      "ARNR": "0355L ",
      "FBNR": "D819",
      "PSMG": 500,
      "FOBZ": "Dream",
      "VABZ": "",
      "ZUSCHNITT": 0,
      "PRODUKTION": 20160616,
      "ANLIEFERUNG": 0,
      "VGL_DATUM": 20160420
    }
  ]
}